Piers York - R Packages
…
# let's use the liberal democracy data from varieties of democracy
lib_democ <- owid("liberal-democracy")

lib_democ

# A tibble: 30,858 × 6
   entity      code   year libdem_vdem_owid libdem_vdem_low_ow… libdem_vdem_hig…
 * <chr>       <chr> <int>            <dbl>               <dbl>            <dbl>
 1 Afghanistan AFG    1789            0.035               0.017            0.046
 2 Afghanistan AFG    1790            0.035               0.017            0.046
 3 Afghanistan AFG    1791            0.035               0.017            0.046
 4 Afghanistan AFG    1792            0.035               0.017            0.046
 5 Afghanistan AFG    1793            0.035               0.017            0.046
 6 Afghanistan AFG    1794            0.035               0.017            0.046
 7 Afghanistan AFG    1795            0.035               0.017            0.046
 8 Afghanistan AFG    1796            0.035               0.017            0.046
 9 Afghanistan AFG    1797            0.035               0.017            0.046
10 Afghanistan AFG    1798            0.035               0.017            0.046
# … with 30,848 more rows

statxplore

This packages imports data from the Department for Work and Pensions’ statXplore repository of published statistics on pensions and benefits. This package is currently in the early stages of development and not yet published on CRAN. Here is an example:

API_KEY <- "YOUR_API_KEY"

pip_regs_age <- start_query("Personal Independence Payment", "PIP Registrations", API_KEY) |>
  add_measure("PIP Registrations") |>
  add_fields(c("Month", "Age (bands and single year)")) |>
  fetch()

pip_regs_age

# A tibble: 1,853 × 3
   month           age_bands_and_single_year pip_registrations
   <chr>           <chr>                                 <dbl>
 1 201304 (Apr-13) 16-19                                   106
 2 201304 (Apr-13) 20-24                                   203
 3 201304 (Apr-13) 25-29                                   201
 4 201304 (Apr-13) 30-34                                   246
 5 201304 (Apr-13) 35-39                                   242
 6 201304 (Apr-13) 40-44                                   331
 7 201304 (Apr-13) 45-49                                   422
 8 201304 (Apr-13) 50-54                                   509
 9 201304 (Apr-13) 55-59                                   448
10 201304 (Apr-13) 60-64                                   424
# … with 1,843 more rows
…
